%YAML 1.1
%TAG !u! tag:unity3d.com,2011:
--- !u!1001 &5394373862649393935
PrefabInstance:
  m_ObjectHideFlags: 0
  serializedVersion: 2
  m_Modification:
    m_TransformParent: {fileID: 0}
    m_Modifications:
    - target: {fileID: 887830341504429760, guid: f7a141025d4a8474690394dda9fbe4b3,
        type: 3}
      propertyPath: m_Materials.Array.data[0]
      value: 
      objectReference: {fileID: 2100000, guid: bac717cd8b981e342a878b478091c891, type: 2}
    - target: {fileID: 1073055446226035859, guid: f7a141025d4a8474690394dda9fbe4b3,
        type: 3}
      propertyPath: m_Name
      value: spoon_sword
      objectReference: {fileID: 0}
    - target: {fileID: 1073055446226035860, guid: f7a141025d4a8474690394dda9fbe4b3,
        type: 3}
      propertyPath: m_LocalPosition.x
      value: 0
      objectReference: {fileID: 0}
    - target: {fileID: 1073055446226035860, guid: f7a141025d4a8474690394dda9fbe4b3,
        type: 3}
      propertyPath: m_LocalPosition.y
      value: 0
      objectReference: {fileID: 0}
    - target: {fileID: 1073055446226035860, guid: f7a141025d4a8474690394dda9fbe4b3,
        type: 3}
      propertyPath: m_LocalPosition.z
      value: 0
      objectReference: {fileID: 0}
    - target: {fileID: 1073055446226035860, guid: f7a141025d4a8474690394dda9fbe4b3,
        type: 3}
      propertyPath: m_LocalRotation.x
      value: 0
      objectReference: {fileID: 0}
    - target: {fileID: 1073055446226035860, guid: f7a141025d4a8474690394dda9fbe4b3,
        type: 3}
      propertyPath: m_LocalRotation.y
      value: 0
      objectReference: {fileID: 0}
    - target: {fileID: 1073055446226035860, guid: f7a141025d4a8474690394dda9fbe4b3,
        type: 3}
      propertyPath: m_LocalRotation.z
      value: 0
      objectReference: {fileID: 0}
    - target: {fileID: 1073055446226035860, guid: f7a141025d4a8474690394dda9fbe4b3,
        type: 3}
      propertyPath: m_LocalRotation.w
      value: 1
      objectReference: {fileID: 0}
    - target: {fileID: 1073055446226035860, guid: f7a141025d4a8474690394dda9fbe4b3,
        type: 3}
      propertyPath: m_RootOrder
      value: 0
      objectReference: {fileID: 0}
    - target: {fileID: 1073055446226035860, guid: f7a141025d4a8474690394dda9fbe4b3,
        type: 3}
      propertyPath: m_LocalEulerAnglesHint.x
      value: 0
      objectReference: {fileID: 0}
    - target: {fileID: 1073055446226035860, guid: f7a141025d4a8474690394dda9fbe4b3,
        type: 3}
      propertyPath: m_LocalEulerAnglesHint.y
      value: 0
      objectReference: {fileID: 0}
    - target: {fileID: 1073055446226035860, guid: f7a141025d4a8474690394dda9fbe4b3,
        type: 3}
      propertyPath: m_LocalEulerAnglesHint.z
      value: 0
      objectReference: {fileID: 0}
    - target: {fileID: 1073055447368304960, guid: f7a141025d4a8474690394dda9fbe4b3,
        type: 3}
      propertyPath: icon
      value: 
      objectReference: {fileID: 21300000, guid: dd883ecdd206c20448b90e85d77370c3,
        type: 3}
    - target: {fileID: 1073055447368304975, guid: f7a141025d4a8474690394dda9fbe4b3,
        type: 3}
      propertyPath: m_Size.y
      value: 0.010317951
      objectReference: {fileID: 0}
    - target: {fileID: 1073055447368304975, guid: f7a141025d4a8474690394dda9fbe4b3,
        type: 3}
      propertyPath: m_Center.x
      value: -0.00000010102987
      objectReference: {fileID: 0}
    - target: {fileID: 1073055447368304975, guid: f7a141025d4a8474690394dda9fbe4b3,
        type: 3}
      propertyPath: m_Center.y
      value: 0.0051589757
      objectReference: {fileID: 0}
    - target: {fileID: 1073055447368304975, guid: f7a141025d4a8474690394dda9fbe4b3,
        type: 3}
      propertyPath: m_Center.z
      value: 0.0000000013411044
      objectReference: {fileID: 0}
    - target: {fileID: 1683934433326171611, guid: f7a141025d4a8474690394dda9fbe4b3,
        type: 3}
      propertyPath: m_RootOrder
      value: 2
      objectReference: {fileID: 0}
    - target: {fileID: 3946824873691364530, guid: f7a141025d4a8474690394dda9fbe4b3,
        type: 3}
      propertyPath: m_Mesh
      value: 
      objectReference: {fileID: -8213443026856553256, guid: f26d889b73d83114986244ef1d832fa5,
        type: 3}
    - target: {fileID: 7348037466714488907, guid: f7a141025d4a8474690394dda9fbe4b3,
        type: 3}
      propertyPath: m_Materials.Array.data[0]
      value: 
      objectReference: {fileID: -8469494145858465668, guid: f26d889b73d83114986244ef1d832fa5,
        type: 3}
    - target: {fileID: 8258518226111751185, guid: f7a141025d4a8474690394dda9fbe4b3,
        type: 3}
      propertyPath: prefabPath
      value: Prefabs/Items/Swords/spoon_sword
      objectReference: {fileID: 0}
    - target: {fileID: 8258518226111751185, guid: f7a141025d4a8474690394dda9fbe4b3,
        type: 3}
      propertyPath: rarity
      value: 
      objectReference: {fileID: 4311405493588648282}
    - target: {fileID: 8258518226111751185, guid: f7a141025d4a8474690394dda9fbe4b3,
        type: 3}
      propertyPath: damage
      value: 10
      objectReference: {fileID: 0}
    m_RemovedComponents: []
  m_SourcePrefab: {fileID: 100100000, guid: f7a141025d4a8474690394dda9fbe4b3, type: 3}
--- !u!1 &4311405493588648282 stripped
GameObject:
  m_CorrespondingSourceObject: {fileID: 8145210754536739413, guid: f7a141025d4a8474690394dda9fbe4b3,
    type: 3}
  m_PrefabInstance: {fileID: 5394373862649393935}
  m_PrefabAsset: {fileID: 0}
